{
  "success":true,
  "available_services":[
    {
      "name":"Car",
      "icon":"https:\/\/s3-ap-southeast-1.amazonaws.com\/com.chalox.app\/1479714400120361459",
      "service_id":"1"
    },
    {
      "name":"Bike",
      "icon":"https:\/\/s3-ap-southeast-1.amazonaws.com\/com.chalox.app\/14797144291599013182",
      "service_id":"2"
    }
  ]
}